name,age,books,readings,color
Executive Director (Harriet),52,4,21,blue
Vice President (Sarah),45,2,40,blue
Vice President (Charlotte),25,1,107,blue
Program Officer (Sojourner),35,2,54,blue
Program Officer (Elizabeth),40,1,68,blue
Program Associate (Ellen),78,3,19,blue